('D:\\repos\\deployotis\\production\\build\\WindowsUpdate\\WindowsUpdate.pkg',
 {'BINARY': 1,
  'DATA': 1,
  'EXECUTABLE': 1,
  'EXTENSION': 1,
  'PYMODULE': 1,
  'PYSOURCE': 1,
  'PYZ': 0,
  'SPLASH': 1},
 [('PYZ-00.pyz',
   'D:\\repos\\deployotis\\production\\build\\WindowsUpdate\\PYZ-00.pyz',
   'PYZ'),
  ('struct',
   'D:\\repos\\deployotis\\production\\build\\WindowsUpdate\\localpycs\\struct.pyc',
   'PYMODULE'),
  ('pyimod01_archive',
   'D:\\repos\\deployotis\\production\\build\\WindowsUpdate\\localpycs\\pyimod01_archive.pyc',
   'PYMODULE'),
  ('pyimod02_importers',
   'D:\\repos\\deployotis\\production\\build\\WindowsUpdate\\localpycs\\pyimod02_importers.pyc',
   'PYMODULE'),
  ('pyimod03_ctypes',
   'D:\\repos\\deployotis\\production\\build\\WindowsUpdate\\localpycs\\pyimod03_ctypes.pyc',
   'PYMODULE'),
  ('pyiboot01_bootstrap',
   'C:\\Program '
   'Files\\Python39\\lib\\site-packages\\PyInstaller\\loader\\pyiboot01_bootstrap.py',
   'PYSOURCE'),
  ('pyi_rth_subprocess',
   'C:\\Program '
   'Files\\Python39\\Lib\\site-packages\\PyInstaller\\hooks\\rthooks\\pyi_rth_subprocess.py',
   'PYSOURCE'),
  ('WindowsUpdate',
   'D:\\repos\\deployotis\\production\\WindowsUpdate.py',
   'PYSOURCE'),
  ('python39.dll', 'C:\\Program Files\\Python39\\python39.dll', 'BINARY'),
  ('VCRUNTIME140.dll',
   'C:\\Program Files\\Python39\\VCRUNTIME140.dll',
   'BINARY'),
  ('select', 'C:\\Program Files\\Python39\\DLLs\\select.pyd', 'EXTENSION'),
  ('_socket', 'C:\\Program Files\\Python39\\DLLs\\_socket.pyd', 'EXTENSION'),
  ('_decimal', 'C:\\Program Files\\Python39\\DLLs\\_decimal.pyd', 'EXTENSION'),
  ('_hashlib', 'C:\\Program Files\\Python39\\DLLs\\_hashlib.pyd', 'EXTENSION'),
  ('_lzma', 'C:\\Program Files\\Python39\\DLLs\\_lzma.pyd', 'EXTENSION'),
  ('_bz2', 'C:\\Program Files\\Python39\\DLLs\\_bz2.pyd', 'EXTENSION'),
  ('unicodedata',
   'C:\\Program Files\\Python39\\DLLs\\unicodedata.pyd',
   'EXTENSION'),
  ('_ssl', 'C:\\Program Files\\Python39\\DLLs\\_ssl.pyd', 'EXTENSION'),
  ('_ctypes', 'C:\\Program Files\\Python39\\DLLs\\_ctypes.pyd', 'EXTENSION'),
  ('_queue', 'C:\\Program Files\\Python39\\DLLs\\_queue.pyd', 'EXTENSION'),
  ('libcrypto-1_1.dll',
   'C:\\Program Files\\Python39\\DLLs\\libcrypto-1_1.dll',
   'BINARY'),
  ('libssl-1_1.dll',
   'C:\\Program Files\\Python39\\DLLs\\libssl-1_1.dll',
   'BINARY'),
  ('libffi-7.dll', 'C:\\Program Files\\Python39\\DLLs\\libffi-7.dll', 'BINARY'),
  ('base_library.zip',
   'D:\\repos\\deployotis\\production\\build\\WindowsUpdate\\base_library.zip',
   'DATA')],
 False,
 False,
 False,
 [],
 None,
 None,
 None)
