('D:\\repos\\deployotis\\production\\build\\WindowsUpdate\\PYZ-00.pyz',
 [('subprocess', 'C:\\Program Files\\Python39\\lib\\subprocess.py', 'PYMODULE'),
  ('selectors', 'C:\\Program Files\\Python39\\lib\\selectors.py', 'PYMODULE'),
  ('contextlib', 'C:\\Program Files\\Python39\\lib\\contextlib.py', 'PYMODULE'),
  ('signal', 'C:\\Program Files\\Python39\\lib\\signal.py', 'PYMODULE'),
  ('_strptime', 'C:\\Program Files\\Python39\\lib\\_strptime.py', 'PYMODULE'),
  ('calendar', 'C:\\Program Files\\Python39\\lib\\calendar.py', 'PYMODULE'),
  ('argparse', 'C:\\Program Files\\Python39\\lib\\argparse.py', 'PYMODULE'),
  ('textwrap', 'C:\\Program Files\\Python39\\lib\\textwrap.py', 'PYMODULE'),
  ('shutil', 'C:\\Program Files\\Python39\\lib\\shutil.py', 'PYMODULE'),
  ('zipfile', 'C:\\Program Files\\Python39\\lib\\zipfile.py', 'PYMODULE'),
  ('py_compile', 'C:\\Program Files\\Python39\\lib\\py_compile.py', 'PYMODULE'),
  ('importlib.machinery',
   'C:\\Program Files\\Python39\\lib\\importlib\\machinery.py',
   'PYMODULE'),
  ('importlib',
   'C:\\Program Files\\Python39\\lib\\importlib\\__init__.py',
   'PYMODULE'),
  ('importlib.abc',
   'C:\\Program Files\\Python39\\lib\\importlib\\abc.py',
   'PYMODULE'),
  ('typing', 'C:\\Program Files\\Python39\\lib\\typing.py', 'PYMODULE'),
  ('importlib._bootstrap',
   'C:\\Program Files\\Python39\\lib\\importlib\\_bootstrap.py',
   'PYMODULE'),
  ('importlib._bootstrap_external',
   'C:\\Program Files\\Python39\\lib\\importlib\\_bootstrap_external.py',
   'PYMODULE'),
  ('importlib.metadata',
   'C:\\Program Files\\Python39\\lib\\importlib\\metadata.py',
   'PYMODULE'),
  ('configparser',
   'C:\\Program Files\\Python39\\lib\\configparser.py',
   'PYMODULE'),
  ('email', 'C:\\Program Files\\Python39\\lib\\email\\__init__.py', 'PYMODULE'),
  ('email.parser',
   'C:\\Program Files\\Python39\\lib\\email\\parser.py',
   'PYMODULE'),
  ('email._policybase',
   'C:\\Program Files\\Python39\\lib\\email\\_policybase.py',
   'PYMODULE'),
  ('email.utils',
   'C:\\Program Files\\Python39\\lib\\email\\utils.py',
   'PYMODULE'),
  ('email._parseaddr',
   'C:\\Program Files\\Python39\\lib\\email\\_parseaddr.py',
   'PYMODULE'),
  ('socket', 'C:\\Program Files\\Python39\\lib\\socket.py', 'PYMODULE'),
  ('random', 'C:\\Program Files\\Python39\\lib\\random.py', 'PYMODULE'),
  ('statistics', 'C:\\Program Files\\Python39\\lib\\statistics.py', 'PYMODULE'),
  ('decimal', 'C:\\Program Files\\Python39\\lib\\decimal.py', 'PYMODULE'),
  ('_pydecimal', 'C:\\Program Files\\Python39\\lib\\_pydecimal.py', 'PYMODULE'),
  ('contextvars',
   'C:\\Program Files\\Python39\\lib\\contextvars.py',
   'PYMODULE'),
  ('fractions', 'C:\\Program Files\\Python39\\lib\\fractions.py', 'PYMODULE'),
  ('numbers', 'C:\\Program Files\\Python39\\lib\\numbers.py', 'PYMODULE'),
  ('hashlib', 'C:\\Program Files\\Python39\\lib\\hashlib.py', 'PYMODULE'),
  ('logging',
   'C:\\Program Files\\Python39\\lib\\logging\\__init__.py',
   'PYMODULE'),
  ('pickle', 'C:\\Program Files\\Python39\\lib\\pickle.py', 'PYMODULE'),
  ('pprint', 'C:\\Program Files\\Python39\\lib\\pprint.py', 'PYMODULE'),
  ('_compat_pickle',
   'C:\\Program Files\\Python39\\lib\\_compat_pickle.py',
   'PYMODULE'),
  ('string', 'C:\\Program Files\\Python39\\lib\\string.py', 'PYMODULE'),
  ('bisect', 'C:\\Program Files\\Python39\\lib\\bisect.py', 'PYMODULE'),
  ('email.feedparser',
   'C:\\Program Files\\Python39\\lib\\email\\feedparser.py',
   'PYMODULE'),
  ('email.message',
   'C:\\Program Files\\Python39\\lib\\email\\message.py',
   'PYMODULE'),
  ('email.policy',
   'C:\\Program Files\\Python39\\lib\\email\\policy.py',
   'PYMODULE'),
  ('email.contentmanager',
   'C:\\Program Files\\Python39\\lib\\email\\contentmanager.py',
   'PYMODULE'),
  ('email.quoprimime',
   'C:\\Program Files\\Python39\\lib\\email\\quoprimime.py',
   'PYMODULE'),
  ('email.headerregistry',
   'C:\\Program Files\\Python39\\lib\\email\\headerregistry.py',
   'PYMODULE'),
  ('email.iterators',
   'C:\\Program Files\\Python39\\lib\\email\\iterators.py',
   'PYMODULE'),
  ('email.generator',
   'C:\\Program Files\\Python39\\lib\\email\\generator.py',
   'PYMODULE'),
  ('email._encoded_words',
   'C:\\Program Files\\Python39\\lib\\email\\_encoded_words.py',
   'PYMODULE'),
  ('base64', 'C:\\Program Files\\Python39\\lib\\base64.py', 'PYMODULE'),
  ('getopt', 'C:\\Program Files\\Python39\\lib\\getopt.py', 'PYMODULE'),
  ('quopri', 'C:\\Program Files\\Python39\\lib\\quopri.py', 'PYMODULE'),
  ('uu', 'C:\\Program Files\\Python39\\lib\\uu.py', 'PYMODULE'),
  ('optparse', 'C:\\Program Files\\Python39\\lib\\optparse.py', 'PYMODULE'),
  ('email._header_value_parser',
   'C:\\Program Files\\Python39\\lib\\email\\_header_value_parser.py',
   'PYMODULE'),
  ('email.header',
   'C:\\Program Files\\Python39\\lib\\email\\header.py',
   'PYMODULE'),
  ('email.base64mime',
   'C:\\Program Files\\Python39\\lib\\email\\base64mime.py',
   'PYMODULE'),
  ('email.charset',
   'C:\\Program Files\\Python39\\lib\\email\\charset.py',
   'PYMODULE'),
  ('email.encoders',
   'C:\\Program Files\\Python39\\lib\\email\\encoders.py',
   'PYMODULE'),
  ('email.errors',
   'C:\\Program Files\\Python39\\lib\\email\\errors.py',
   'PYMODULE'),
  ('csv', 'C:\\Program Files\\Python39\\lib\\csv.py', 'PYMODULE'),
  ('struct', 'C:\\Program Files\\Python39\\lib\\struct.py', 'PYMODULE'),
  ('importlib.util',
   'C:\\Program Files\\Python39\\lib\\importlib\\util.py',
   'PYMODULE'),
  ('tarfile', 'C:\\Program Files\\Python39\\lib\\tarfile.py', 'PYMODULE'),
  ('gzip', 'C:\\Program Files\\Python39\\lib\\gzip.py', 'PYMODULE'),
  ('_compression',
   'C:\\Program Files\\Python39\\lib\\_compression.py',
   'PYMODULE'),
  ('lzma', 'C:\\Program Files\\Python39\\lib\\lzma.py', 'PYMODULE'),
  ('bz2', 'C:\\Program Files\\Python39\\lib\\bz2.py', 'PYMODULE'),
  ('copy', 'C:\\Program Files\\Python39\\lib\\copy.py', 'PYMODULE'),
  ('gettext', 'C:\\Program Files\\Python39\\lib\\gettext.py', 'PYMODULE'),
  ('tracemalloc',
   'C:\\Program Files\\Python39\\lib\\tracemalloc.py',
   'PYMODULE'),
  ('_py_abc', 'C:\\Program Files\\Python39\\lib\\_py_abc.py', 'PYMODULE'),
  ('tempfile', 'C:\\Program Files\\Python39\\lib\\tempfile.py', 'PYMODULE'),
  ('getpass', 'C:\\Program Files\\Python39\\lib\\getpass.py', 'PYMODULE'),
  ('nturl2path', 'C:\\Program Files\\Python39\\lib\\nturl2path.py', 'PYMODULE'),
  ('ftplib', 'C:\\Program Files\\Python39\\lib\\ftplib.py', 'PYMODULE'),
  ('netrc', 'C:\\Program Files\\Python39\\lib\\netrc.py', 'PYMODULE'),
  ('shlex', 'C:\\Program Files\\Python39\\lib\\shlex.py', 'PYMODULE'),
  ('mimetypes', 'C:\\Program Files\\Python39\\lib\\mimetypes.py', 'PYMODULE'),
  ('http.cookiejar',
   'C:\\Program Files\\Python39\\lib\\http\\cookiejar.py',
   'PYMODULE'),
  ('http', 'C:\\Program Files\\Python39\\lib\\http\\__init__.py', 'PYMODULE'),
  ('ssl', 'C:\\Program Files\\Python39\\lib\\ssl.py', 'PYMODULE'),
  ('http.client',
   'C:\\Program Files\\Python39\\lib\\http\\client.py',
   'PYMODULE'),
  ('stringprep', 'C:\\Program Files\\Python39\\lib\\stringprep.py', 'PYMODULE'),
  ('email.mime.text',
   'C:\\Program Files\\Python39\\lib\\email\\mime\\text.py',
   'PYMODULE'),
  ('email.mime',
   'C:\\Program Files\\Python39\\lib\\email\\mime\\__init__.py',
   'PYMODULE'),
  ('email.mime.nonmultipart',
   'C:\\Program Files\\Python39\\lib\\email\\mime\\nonmultipart.py',
   'PYMODULE'),
  ('email.mime.base',
   'C:\\Program Files\\Python39\\lib\\email\\mime\\base.py',
   'PYMODULE'),
  ('email.mime.multipart',
   'C:\\Program Files\\Python39\\lib\\email\\mime\\multipart.py',
   'PYMODULE'),
  ('datetime', 'C:\\Program Files\\Python39\\lib\\datetime.py', 'PYMODULE'),
  ('threading', 'C:\\Program Files\\Python39\\lib\\threading.py', 'PYMODULE'),
  ('_threading_local',
   'C:\\Program Files\\Python39\\lib\\_threading_local.py',
   'PYMODULE'),
  ('smtplib', 'C:\\Program Files\\Python39\\lib\\smtplib.py', 'PYMODULE'),
  ('hmac', 'C:\\Program Files\\Python39\\lib\\hmac.py', 'PYMODULE'),
  ('keyboard',
   'C:\\Program Files\\Python39\\lib\\site-packages\\keyboard\\__init__.py',
   'PYMODULE'),
  ('keyboard._canonical_names',
   'C:\\Program '
   'Files\\Python39\\lib\\site-packages\\keyboard\\_canonical_names.py',
   'PYMODULE'),
  ('keyboard._generic',
   'C:\\Program Files\\Python39\\lib\\site-packages\\keyboard\\_generic.py',
   'PYMODULE'),
  ('keyboard._keyboard_event',
   'C:\\Program '
   'Files\\Python39\\lib\\site-packages\\keyboard\\_keyboard_event.py',
   'PYMODULE'),
  ('json', 'C:\\Program Files\\Python39\\lib\\json\\__init__.py', 'PYMODULE'),
  ('json.encoder',
   'C:\\Program Files\\Python39\\lib\\json\\encoder.py',
   'PYMODULE'),
  ('json.decoder',
   'C:\\Program Files\\Python39\\lib\\json\\decoder.py',
   'PYMODULE'),
  ('json.scanner',
   'C:\\Program Files\\Python39\\lib\\json\\scanner.py',
   'PYMODULE'),
  ('keyboard._darwinkeyboard',
   'C:\\Program '
   'Files\\Python39\\lib\\site-packages\\keyboard\\_darwinkeyboard.py',
   'PYMODULE'),
  ('ctypes.util',
   'C:\\Program Files\\Python39\\lib\\ctypes\\util.py',
   'PYMODULE'),
  ('ctypes._aix',
   'C:\\Program Files\\Python39\\lib\\ctypes\\_aix.py',
   'PYMODULE'),
  ('ctypes.macholib.dyld',
   'C:\\Program Files\\Python39\\lib\\ctypes\\macholib\\dyld.py',
   'PYMODULE'),
  ('ctypes.macholib',
   'C:\\Program Files\\Python39\\lib\\ctypes\\macholib\\__init__.py',
   'PYMODULE'),
  ('ctypes.macholib.dylib',
   'C:\\Program Files\\Python39\\lib\\ctypes\\macholib\\dylib.py',
   'PYMODULE'),
  ('ctypes.macholib.framework',
   'C:\\Program Files\\Python39\\lib\\ctypes\\macholib\\framework.py',
   'PYMODULE'),
  ('ctypes',
   'C:\\Program Files\\Python39\\lib\\ctypes\\__init__.py',
   'PYMODULE'),
  ('ctypes._endian',
   'C:\\Program Files\\Python39\\lib\\ctypes\\_endian.py',
   'PYMODULE'),
  ('keyboard._nixkeyboard',
   'C:\\Program Files\\Python39\\lib\\site-packages\\keyboard\\_nixkeyboard.py',
   'PYMODULE'),
  ('keyboard._nixcommon',
   'C:\\Program Files\\Python39\\lib\\site-packages\\keyboard\\_nixcommon.py',
   'PYMODULE'),
  ('glob', 'C:\\Program Files\\Python39\\lib\\glob.py', 'PYMODULE'),
  ('keyboard._winkeyboard',
   'C:\\Program Files\\Python39\\lib\\site-packages\\keyboard\\_winkeyboard.py',
   'PYMODULE'),
  ('ctypes.wintypes',
   'C:\\Program Files\\Python39\\lib\\ctypes\\wintypes.py',
   'PYMODULE'),
  ('platform', 'C:\\Program Files\\Python39\\lib\\platform.py', 'PYMODULE'),
  ('queue', 'C:\\Program Files\\Python39\\lib\\queue.py', 'PYMODULE'),
  ('__future__',
   'C:\\Program Files\\Python39\\lib\\__future__.py',
   'PYMODULE')])
